# BunsenLabs Main Menu
@text,,6,6,150,20,2,left,top,auto,#000000 0,<span size="large">🔍︎</span>
@search,,34,3,150,20,2,left,top,auto,#000000 0,Escribir y Buscar
^sep()
Ejecutar una aplicación,gmrun,/usr/share/icons/Numix-White/48/apps/launcher_bfb.png
^sep()
Terminal,x-terminal-emulator,utilities-terminal
Gestor de archivos,bl-file-manager,system-file-manager
Navegador Web,x-www-browser,/usr/share/icons/Numix-White/48/apps/brave.svg
Correo Contactos y Calendario,evolution,/usr/share/icons/Numix-White/48/apps/evolution.svg
Noticias Rss,liferea,/usr/share/icons/Numix-White/48/apps/liferea.svg
Suite Libreoffice,libreoffice,/usr/share/icons/Numix-White/48/apps/libreoffice-main.svg
Visor de Imágenes,ristretto,/usr/share/icons/Numix-White/48/apps/ristretto.svg
Reproductor Multimedia,vlc,/usr/share/icons/Numix-White/48/apps/vlc.svg
Gestor de Virtualizacion,virtualbox,/usr/share/icons/Numix-White/48/apps/virtual-box.svg
#Text Editor,bl-text-editor,text-editor
#Media Player,bl-media-player,multimedia-player
^sep()
Todas las aplicaciones,^checkout(apps),/usr/share/icons/Papirus-Bunsen-Dark-grey/32x32/apps/distributor-logo.svg
^sep()
Accesorios del sistema,^checkout(bl-utilities),/usr/share/icons/Numix-White/48/apps/system-config-services.svg
Lugares,^pipe(jgmenu_run ob --cmd="bl-places-pipemenu" --tag="bl-places-pipemenu"),folder
Archivos recientes,^pipe(jgmenu_run ob --cmd="bl-recent-files-pipemenu -rl15" --tag="bl-recent-files-pipemenu"),/usr/share/icons/Numix-White/48/apps/preferences-system-time.svg
^sep()
Preferencias,^checkout(bl-preferences),/usr/share/icons/Numix-White/48/apps/preferences-desktop.svg
Herramientas del sistema,^checkout(bl-system),/usr/share/icons/Numix-White/48/apps/preferences-system.svg
^sep()
#Help &amp; Resources,^pipe(jgmenu_run ob --cmd="bl-help-pipemenu" --tag="bl-help-pipemenu")
Ayuda &amp; Recursos,^checkout(bl-help-menu),/usr/share/icons/Papirus/32x32/apps/help-browser.svg
Atajos de Teclado,^pipe(jgmenu_run ob --cmd="bl-kb-pipemenu" --tag="bl-kb-pipemenu"),/usr/share/icons/Numix-White/48/apps/preferences-desktop-keyboard.svg
^sep()
Bloquear pantalla,bl-lock,/usr/share/icons/Numix-White/48/apps/system-lock-screen.svg
Salir del sistema,bl-exit,/usr/share/icons/Numix-White/48/apps/boot.svg

. /usr/share/bunsen/configs/menu-includes/help-menu

^tag(bl-utilities)
Back,^back()
Capturar pantalla,^pipe(bl-scrot-pipemenu)
SSH,^pipe(jgmenu_run ob --cmd="bl-sshconfig-pipemenu" --tag="bl-sshconfig-pipemenu")
Escritorio remoto,^pipe(jgmenu_run ob --cmd="bl-remote-desktop-pipemenu" --tag="bl-remote-desktop-pipemenu")
gestor  de temas BLOB,bl-obthemes
# These two utilities are available if you uncomment the line.
# Pipe menu to install and use Dropbox:
#Dropbox,^pipe(jgmenu_run ob --cmd="bl-dropbox-pipemenu" --tag="bl-dropbox-pipemenu")
# Utility to set language if login greeter does not offer that option:
#Choose Language,bl-setlocale

^tag(bl-preferences)
Back,^back()
BunsenLabs,^checkout(bl-blConfig)
Openbox,^checkout(bl-obConfig)
jgmenu,^checkout(bl-jgmenuConfig)
Atajos de teclado,^checkout(bl-xbindkeysConfig)
Compositor,^pipe(jgmenu_run ob --cmd="bl-compositor" --tag="bl-compositor")
Conky,^pipe(jgmenu_run ob --cmd="bl-conky-pipemenu" --tag="bl-conky-pipemenu"),conky-manager
Panel Tint2,^pipe(jgmenu_run ob --cmd="bl-tint2-pipemenu" --tag="bl-tint2-pipemenu"),tint2
Apariencia,lxappearance,preferences-desktop-theme
Fuentes,bl-text-editor ~/.config/fontconfig/fonts.conf,preferences-desktop-font
Wallpaper,nitrogen,preferences-desktop-wallpaper,wallpaper
Notificaciones,xfce4-notifyd-config,notifyconf
Gestor de energia,xfce4-power-manager-settings,xfce4-power-manager-settings
dmenu,^checkout(bl-dmenuconfig)
gmrun,^checkout(bl-gmrunconfig)
Pantalla,^checkout(bl-DisplaySettings)

BunsenLabs Session,^tag(bl-blConfig)
Back,^back()
Editar archivo autostart,bl-text-editor ~/.config/bunsen/autostart
Editar entorno,bl-text-editor ~/.config/bunsen/environment
^sep(Manuals)
bunsenlabs-session,x-terminal-emulator -T 'man bunsenlabs-session' -e man bunsenlabs-session
xdg-autostart,x-terminal-emulator -T 'man bl-xdg-autostart' -e man bl-xdg-autostart

Openbox,^tag(bl-obConfig),openbox
Back,^back()
Editar archivo bl-rc.xml,bl-text-editor ~/.config/openbox/bl-rc.xml
^sep()
Preferencias del gestor de ventanas,obconf --config-file ~/.config/openbox/bl-rc.xml
^sep()
Reconfigurar openbox,openbox --reconfigure
Reiniciar openbox,openbox --restart

jgmenu,^tag(bl-jgmenuConfig)
Back,^back()
Editar contenido del menú,bl-text-editor ~/.config/jgmenu/prepend.csv
Ajustes del menú,bl-text-editor ~/.config/jgmenu/jgmenurc
^sep(Help)
man page,x-terminal-emulator -T 'man jgmenu' -e man jgmenu
tutorial,x-terminal-emulator -T 'man jgmenututorial' -e man jgmenututorial

Keybinds,^tag(bl-xbindkeysConfig)
Back,^back()
Editar el archivo .xbindkeysrc,bl-text-editor ~/.xbindkeysrc
Reiniciar los atajos,sh -c 'pkill -x xbindkeys; xbindkeys_autostart'
^sep()
# Next entry requires tk
#Show Keybinds,xbindkeys_show
^sep(Help)
man page,x-terminal-emulator -T 'man xbindkeys' -e man xbindkeys

dmenu,^tag(bl-dmenuconfig)
Back,^back()
Editar el script de inicio,bl-text-editor ~/.config/dmenu/dmenu-bind.sh
^sep(Help)
man page,x-terminal-emulator -T 'man dmenu' -e man dmenu

gmrun,^tag(bl-gmrunconfig)
Back,^back()
Editar el archivo de configuración,bl-text-editor ~/.gmrunrc
^sep(Help)
man page,x-terminal-emulator -T 'man gmrun' -e man gmrun

Display,^tag(bl-DisplaySettings)
Back,^back()
Ajustes de pantallas,arandr
^sep(Help)
man xrandr,x-terminal-emulator -T 'man xrandr' -e man xrandr

System,^tag(bl-system)
Back,^back()
Impresoras,^pipe(jgmenu_run ob --cmd="bl-printing-pipemenu" --tag="bl-printing-pipemenu"),printer
Gestor de tareas (htop),x-terminal-emulator -T 'htop task manager' -e htop,htop
#Install Selected Packages,^pipe(bl-install-pipemenu)
Gestor de paquetes Synaptic,pkexec synaptic,synaptic
Ajustes de la pantalla de Inicio,pkexec bl-text-editor /etc/lightdm/lightdm-gtk-greeter.conf /etc/lightdm/lightdm.conf,lightdm-settings
Ajustes de la interface de la pantalla de inicio,lightdm-gtk-greeter-settings-pkexec,lightdm-settings
Gestor de particiones GParted,pkexec gparted,gparted
Navegador por defecto,"""x-terminal-emulator -T 'Select Default Browser' -e sh -c 'sudo update-alternatives --config x-www-browser; sleep 5'""",web-browser
Editar programas predeterminados (Debian),galternatives,galternatives
#^sep()
#About Bunsen Alternatives,yad --button="OK":0 --center --window-icon=distributor-logo-bunsenlabs --text-info --title="About Bunsen Alternatives" --filename="/usr/share/bunsen/docs/helpfile-bl-alternatives.txt" --width=900 --height=700 --fontname=Monospace,distributor-logo-bunsenlabs


^tag(apps)

